Test 1

-0.0240348 -0.01175458 -0.6008699 -0.2938644 -0.0 -0.0 -0.0 -0.0
-0.02339548 -0.01238168 0.01598299 -0.0156777 -61.7502 -0.0254469 0.3769912 -0.6361725
-0.02193419 -0.01342686 0.03653225 -0.02612947 -61.70496 -0.1036726 1.130973 -1.955641
-0.01937693 -0.01473333 0.06393157 -0.03266176 -61.63899 -0.2280796 1.649336 -3.110177
-0.01841795 -0.01374041 0.02397448 0.02482301 -61.63145 -0.3948982 0.1884956 -4.170464
-0.02179719 -0.00987326 -0.08448101 0.09667883 -61.62768 -0.6597344 0.09424779 -6.620906
-0.07549976 0.003844693 -1.342564 0.3429488 -61.62768 -0.656907 -0.0 0.07068583

Test 2

0.03733956 0.005804397 0.4726373 0.3246581 -61.63711 -0.6738716 0.02356195 -0.1178097
0.03834421 0.006222472 0.02511628 0.01045186 -61.63805 -0.674814 -0.02356195 -0.02356195
0.03724823 0.009436387 -0.02739951 0.0803479 -61.63711 -0.6757565 0.02356195 -0.02356195
0.03268169 0.005098906 -0.1141636 -0.108437 -61.63805 -0.6785841 -0.02356195 -0.07068583
0.02930245 0.001545299 -0.08448101 -0.08884016 -61.63711 -0.6795264 0.02356195 -0.02356195
0.02560355 -0.003497679 -0.09247251 -0.1260744 -61.63711 -0.6814115 -0.0 -0.04712389
0.02153932 -0.007835165 -0.1016056 -0.1084372 -61.63805 -0.6785841 -0.02356195 0.07068583
0.01706411 -0.01374041 -0.1118803 -0.1476312 -61.63711 -0.6861238 0.02356195 -0.1884956
0.01158425 -0.02040342 -0.1369964 -0.1665751 -61.64182 -0.6842389 -0.1178097 0.04712389

Test 3

0.06409951 0.006379247 1.828901 -0.4396276 -61.65124 -0.7464424 0.04712389 -0.1649336
0.0661088 0.007737976 0.05023218 0.03396822 -61.65124 -0.7511547 -0.0 -0.1178097
0.06638279 0.009880588 0.006849691 0.0535653 -61.65124 -0.7558671 -0.0 -0.1178097
0.06501282 0.01001124 -0.0342492 0.003266242 -61.6503 -0.7568096 0.02356195 -0.02356195
0.06263822 0.006849576 -0.05936511 -0.07904153 -61.65407 -0.7549247 -0.09424779 0.04712389
0.05889366 -0.0007802211 -0.09361393 -0.1907449 -61.73984 -0.04146902 -2.144137 17.83639
0.05441844 -0.01097069 -0.1118805 -0.2547618 -61.67858 -0.09142035 1.531526 -1.248783
0.04871026 -0.02285958 -0.1427043 -0.2972223 -0.02356194 -0.03769911 -2.756747 1.343031
0.04140379 -0.03532332 -0.1826618 -0.3115935 -0.08482301 -0.09613274 -1.531526 -1.46084
